{
  "version": "2.1",
  "licenses": [
    {
      "id": "Apache-2.0",
      "name": "Apache License 2.0",
      "url": "http://www.apache.org/licenses/LICENSE-2.0.html"
    },
    {
      "id": "MIT",
      "name": "MIT License",
      "url": "https://opensource.org/licenses/MIT"
    }
  ],
  "dependencies": [
    {
      "name": "actioncable",
      "version": "6.0.3.3",
      "package_manager": "bundler",
      "path": "Gemfile.lock",
      "licenses": ["MIT"]
    },
    {
      "name": "test_package",
      "version": "0.1.0",
      "package_manager": "bundler",
      "path": "Gemfile.lock",
      "licenses": ["Apache-2.0"]
    }
  ]
}
